%YAML 1.1
%TAG !u! tag:unity3d.com,2011:
--- !u!74 &7400000
AnimationClip:
  m_ObjectHideFlags: 0
  m_CorrespondingSourceObject: {fileID: 0}
  m_PrefabInstance: {fileID: 0}
  m_PrefabAsset: {fileID: 0}
  m_Name: Run
  serializedVersion: 6
  m_Legacy: 0
  m_Compressed: 0
  m_UseHighQualityCurve: 1
  m_RotationCurves: []
  m_CompressedRotationCurves: []
  m_EulerCurves: []
  m_PositionCurves: []
  m_ScaleCurves: []
  m_FloatCurves: []
  m_PPtrCurves:
  - curve:
    - time: 0
      value: {fileID: 21300000, guid: 62eba06802af684418106cbca2481284, type: 3}
    - time: 0.083333336
      value: {fileID: 21300000, guid: 07c3f58fb5b5c224e9bc70f6aa8c7773, type: 3}
    - time: 0.16666667
      value: {fileID: 21300000, guid: ef700718d6b718f4b85f83f15f8c8756, type: 3}
    - time: 0.25
      value: {fileID: 21300000, guid: 623c6838e22a39e44b7834882aeebd02, type: 3}
    - time: 0.33333334
      value: {fileID: 21300000, guid: 621ee6c4512f21d4fb6be87d5c0c1f89, type: 3}
    - time: 0.41666666
      value: {fileID: 21300000, guid: f169256a78e632d41984b8fb3f0de051, type: 3}
    - time: 0.5
      value: {fileID: 21300000, guid: 194d5efe8a0bd1f4a851b74587c78e5b, type: 3}
    - time: 0.5833333
      value: {fileID: 21300000, guid: 4a2a658e89c508c4285f2b9b2abd25f7, type: 3}
    - time: 0.6666667
      value: {fileID: 21300000, guid: f1ca4ba7d44680f4ab81018601fe0d1e, type: 3}
    - time: 0.75
      value: {fileID: 21300000, guid: ca8b9c55f3450f348a14270d73cdb18f, type: 3}
    attribute: m_Sprite
    path: 
    classID: 212
    script: {fileID: 0}
  m_SampleRate: 12
  m_WrapMode: 0
  m_Bounds:
    m_Center: {x: 0, y: 0, z: 0}
    m_Extent: {x: 0, y: 0, z: 0}
  m_ClipBindingConstant:
    genericBindings:
    - serializedVersion: 2
      path: 0
      attribute: 0
      script: {fileID: 0}
      typeID: 212
      customType: 23
      isPPtrCurve: 1
    pptrCurveMapping:
    - {fileID: 21300000, guid: 62eba06802af684418106cbca2481284, type: 3}
    - {fileID: 21300000, guid: 07c3f58fb5b5c224e9bc70f6aa8c7773, type: 3}
    - {fileID: 21300000, guid: ef700718d6b718f4b85f83f15f8c8756, type: 3}
    - {fileID: 21300000, guid: 623c6838e22a39e44b7834882aeebd02, type: 3}
    - {fileID: 21300000, guid: 621ee6c4512f21d4fb6be87d5c0c1f89, type: 3}
    - {fileID: 21300000, guid: f169256a78e632d41984b8fb3f0de051, type: 3}
    - {fileID: 21300000, guid: 194d5efe8a0bd1f4a851b74587c78e5b, type: 3}
    - {fileID: 21300000, guid: 4a2a658e89c508c4285f2b9b2abd25f7, type: 3}
    - {fileID: 21300000, guid: f1ca4ba7d44680f4ab81018601fe0d1e, type: 3}
    - {fileID: 21300000, guid: ca8b9c55f3450f348a14270d73cdb18f, type: 3}
  m_AnimationClipSettings:
    serializedVersion: 2
    m_AdditiveReferencePoseClip: {fileID: 0}
    m_AdditiveReferencePoseTime: 0
    m_StartTime: 0
    m_StopTime: 0.8333333
    m_OrientationOffsetY: 0
    m_Level: 0
    m_CycleOffset: 0
    m_HasAdditiveReferencePose: 0
    m_LoopTime: 1
    m_LoopBlend: 0
    m_LoopBlendOrientation: 0
    m_LoopBlendPositionY: 0
    m_LoopBlendPositionXZ: 0
    m_KeepOriginalOrientation: 0
    m_KeepOriginalPositionY: 1
    m_KeepOriginalPositionXZ: 0
    m_HeightFromFeet: 0
    m_Mirror: 0
  m_EditorCurves: []
  m_EulerEditorCurves: []
  m_HasGenericRootTransform: 0
  m_HasMotionFloatCurves: 0
  m_Events: []
